{
  "project_info": {
    "project_number": "811041989977",
    "firebase_url": "https://wowctionhouse.firebaseio.com",
    "project_id": "wowctionhouse",
    "storage_bucket": "wowctionhouse.appspot.com"
  },
  "client": [
    {
      "client_info": {
        "mobilesdk_app_id": "1:811041989977:android:2ee7c2ad2b736892",
        "android_client_info": {
          "package_name": "com.example.hejuso.wowctionhouse"
        }
      },
      "oauth_client": [
        {
          "client_id": "811041989977-t54c8ks50safm78p4tm3e2pqu8pah9st.apps.googleusercontent.com",
          "client_type": 1,
          "android_info": {
            "package_name": "com.example.hejuso.wowctionhouse",
            "certificate_hash": "a64004af4097dd734cf2320fc451bd7d0e37941d"
          }
        },
        {
          "client_id": "811041989977-f06dlj15eld2beqgqgetf21l6qti4v45.apps.googleusercontent.com",
          "client_type": 3
        }
      ],
      "api_key": [
        {
          "current_key": "AIzaSyAgLcZW5MFHWpH-JGSpLnOi7Cp7h1l9TUo"
        }
      ],
      "services": {
        "analytics_service": {
          "status": 1
        },
        "appinvite_service": {
          "status": 2,
          "other_platform_oauth_client": [
            {
              "client_id": "811041989977-f06dlj15eld2beqgqgetf21l6qti4v45.apps.googleusercontent.com",
              "client_type": 3
            }
          ]
        },
        "ads_service": {
          "status": 2
        }
      }
    }
  ],
  "configuration_version": "1"
}